Solar Radiation - Daily,,,,,,,,,,
,,,,,,,,,,
Weather:,,Atlanta-Hartsfield-Jackson Int_GA_USA_TMY3_722190,,,,,,,,
Lat:,,33.633,,,,,,,,
Lon:,,-84.45,,,,,,,,
Timezone:,,-5,,,,,,,,
,,,,,,,,,,
M,D/M,Daily Global Solar Radiation (kW/m2),,,,,,,,
,,0,-45,-90,-135,180,135,90,45,HOR.
month,day,S,SE,E,NE,N,NW,W,SW,HOR.
Jan,1,59,49,35,27,27,28,37,52,52
Jan,2,113,82,44,35,34,36,58,101,89
Jan,3,50,40,28,23,23,25,35,48,44
Jan,4,187,135,62,31,30,33,75,152,125
Jan,5,227,158,67,25,23,30,89,185,141
Jan,6,84,69,47,32,31,33,49,71,68
Jan,7,80,65,46,37,37,39,54,74,71
Jan,8,107,88,63,51,49,53,71,97,95
Jan,9,147,99,60,45,45,50,92,141,114
Jan,10,199,103,40,28,27,38,120,206,132
Jan,11,271,186,87,22,18,31,120,225,155
Jan,12,169,133,70,36,35,39,71,133,119
Jan,13,198,102,38,25,24,36,119,205,131
Jan,14,197,146,80,35,32,42,99,166,128
Jan,15,275,190,90,23,18,32,124,229,160
Jan,16,248,182,91,29,24,32,103,196,153
Jan,17,51,41,30,24,23,25,36,49,46
Jan,18,66,56,41,32,31,34,45,61,60
Jan,19,83,68,49,40,39,41,56,76,75
Jan,20,109,75,49,39,38,43,76,109,90
Jan,21,111,77,53,38,37,47,85,114,88
Jan,22,201,145,84,37,32,48,116,179,133
Jan,23,258,180,88,26,22,36,121,217,164
Jan,24,158,147,89,40,37,40,59,105,115
Jan,25,166,93,45,33,32,39,103,170,126
Jan,26,269,189,94,27,21,38,130,228,173
Jan,27,265,186,93,27,22,39,128,224,173
Jan,28,269,189,96,27,21,39,131,228,175
Jan,29,250,194,102,31,24,34,102,191,169
Jan,30,147,129,79,45,41,46,68,112,118
Jan,31,133,108,62,41,39,43,65,109,110
Feb,1,58,40,30,27,27,31,49,63,53
Feb,2,246,179,95,36,31,48,124,209,178
Feb,3,267,185,94,27,21,43,138,232,186
Feb,4,231,152,80,35,30,50,137,218,171
Feb,5,214,190,104,38,32,37,69,143,162
Feb,6,91,50,36,32,31,40,82,107,80
Feb,7,24,21,16,13,12,13,17,22,23
Feb,8,169,81,42,31,30,53,141,199,137
Feb,9,187,178,105,42,36,40,63,120,148
Feb,10,51,42,32,25,25,27,37,48,48
Feb,11,120,74,49,41,40,57,106,139,107
Feb,12,244,177,99,36,28,48,131,212,193
Feb,13,218,186,111,47,38,44,89,159,178
Feb,14,204,166,97,43,37,48,99,163,171
Feb,15,119,98,75,59,56,65,92,116,114
Feb,16,112,92,69,56,54,59,82,107,108
Feb,17,28,24,18,15,14,16,21,27,28
Feb,18,41,38,29,22,20,22,28,36,40
Feb,19,80,51,39,35,34,45,76,94,78
Feb,20,240,179,104,38,26,56,145,219,207
Feb,21,232,193,118,47,32,45,109,182,205
Feb,22,97,88,61,45,42,43,53,79,93
Feb,23,213,186,124,55,40,62,122,176,191
Feb,24,248,190,116,42,25,59,153,226,224
Feb,25,206,189,122,54,39,52,96,154,191
Feb,26,222,172,106,43,28,56,136,202,209
Feb,27,207,183,125,60,44,72,131,179,194
Feb,28,172,141,98,59,53,71,118,158,171
Mar,1,78,67,54,45,42,48,65,78,82
Mar,2,158,144,99,56,50,61,90,126,159
Mar,3,202,161,111,60,43,74,148,199,204
Mar,4,142,94,69,55,51,71,128,161,152
Mar,5,182,121,78,51,46,75,149,198,196
Mar,6,215,169,112,57,44,72,147,203,228
Mar,7,185,180,141,71,47,72,128,160,188
Mar,8,206,172,117,54,36,64,135,186,223
Mar,9,145,122,95,64,58,84,129,150,157
Mar,10,192,150,102,55,43,64,129,180,217
Mar,11,179,134,90,58,51,77,138,183,205
Mar,12,172,117,78,57,53,85,153,195,200
Mar,13,215,184,130,58,32,73,157,207,250
Mar,14,173,161,121,72,55,83,129,161,198
Mar,15,197,161,115,65,49,86,159,202,236
Mar,16,93,84,72,59,54,64,83,94,104
Mar,17,150,105,82,62,54,98,169,192,184
Mar,18,220,194,143,66,32,91,186,229,279
Mar,19,216,192,143,67,34,91,183,224,278
Mar,20,188,168,123,65,45,66,122,165,238
Mar,21,74,68,57,47,43,50,63,72,84
Mar,22,93,81,70,60,56,67,88,98,107
Mar,23,152,123,98,70,65,100,152,170,191
Mar,24,161,159,129,80,53,86,134,160,209
Mar,25,198,180,140,71,38,96,181,213,281
Mar,26,198,187,148,75,38,92,174,206,284
Mar,27,151,157,129,82,60,72,99,125,193
Mar,28,104,96,83,69,62,74,94,106,125
Mar,29,127,94,80,65,59,117,181,185,177
Mar,30,166,135,107,75,60,105,171,195,240
Mar,31,103,91,84,68,58,98,138,138,138
Apr,1,97,86,75,64,59,71,91,102,118
Apr,2,110,102,87,69,64,76,97,109,137
Apr,3,95,83,74,64,61,85,110,114,119
Apr,4,111,108,98,78,65,77,101,112,142
Apr,5,159,135,111,79,63,107,169,188,246
Apr,6,175,174,147,84,46,111,187,202,300
Apr,7,163,158,133,75,41,111,188,200,292
Apr,8,165,175,153,86,41,116,193,201,303
Apr,9,166,174,152,87,43,116,193,202,308
Apr,10,165,165,143,87,53,111,179,192,294
Apr,11,159,169,150,87,45,112,184,192,301
Apr,12,156,152,130,83,58,109,167,178,276
Apr,13,150,161,142,90,59,117,169,173,270
Apr,14,153,173,158,95,48,122,191,191,306
Apr,15,157,160,142,93,61,114,175,183,291
Apr,16,156,167,151,99,63,96,143,158,278
Apr,17,145,157,146,91,48,112,178,182,299
Apr,18,126,129,113,88,74,88,106,119,187
Apr,19,146,139,122,89,77,112,152,158,242
Apr,20,137,137,122,89,76,98,128,136,217
Apr,21,102,102,98,83,74,89,105,107,137
Apr,22,111,110,105,90,80,96,115,117,151
Apr,23,129,113,103,88,81,120,159,159,208
Apr,24,133,127,119,95,83,143,189,180,240
Apr,25,149,162,155,113,81,136,185,181,287
Apr,26,126,168,172,122,76,140,182,163,258
Apr,27,144,157,150,107,74,131,182,178,299
Apr,28,142,167,165,116,74,134,186,179,309
Apr,29,116,117,112,91,80,110,137,133,190
Apr,30,109,101,96,83,75,99,127,127,173
May,1,114,106,104,90,82,130,168,156,199
May,2,125,125,117,94,83,110,136,136,212
May,3,134,141,140,114,91,141,181,171,250
May,4,137,153,151,118,94,134,166,158,251
May,5,127,145,145,109,77,145,194,177,297
May,6,124,164,173,126,76,139,186,168,308
May,7,104,156,170,129,74,86,100,99,201
May,8,135,144,141,110,90,140,178,168,278
May,9,124,144,145,105,74,144,194,175,324
May,10,120,144,146,105,72,149,201,177,336
May,11,120,171,187,143,88,127,157,144,271
May,12,122,144,148,114,87,149,188,167,290
May,13,116,151,161,118,75,148,197,172,337
May,14,119,154,163,130,92,112,128,122,222
May,15,122,128,125,97,82,146,189,170,307
May,16,113,160,178,134,80,143,186,162,324
May,17,120,139,139,105,81,132,167,151,300
May,18,113,152,166,127,81,138,178,157,317
May,19,105,140,155,118,74,138,181,157,324
May,20,124,153,161,127,88,120,150,144,290
May,21,114,146,161,127,94,152,188,160,302
May,22,119,141,145,115,85,119,147,139,282
May,23,113,127,132,110,92,134,162,146,258
May,24,71,75,78,70,65,78,87,80,109
May,25,109,113,116,105,98,114,128,120,164
May,26,109,110,110,98,89,105,122,119,187
May,27,117,118,119,107,105,147,171,151,220
May,28,103,123,131,112,88,104,119,114,187
May,29,124,139,142,117,102,152,182,161,291
May,30,116,153,169,137,95,128,154,140,286
May,31,115,139,145,119,96,118,133,124,242
Jun,1,118,123,127,112,106,160,191,165,262
Jun,2,129,155,167,140,111,153,181,162,301
Jun,3,124,152,164,136,108,158,188,163,309
Jun,4,98,152,181,146,90,142,176,147,317
Jun,5,95,140,162,128,89,160,197,157,337
Jun,6,102,143,162,130,88,140,173,147,323
Jun,7,87,137,163,128,86,163,201,156,345
Jun,8,95,151,180,144,99,175,209,161,333
Jun,9,121,151,164,136,107,153,181,158,309
Jun,10,106,143,161,131,96,157,190,157,332
Jun,11,87,139,168,132,79,137,172,140,341
Jun,12,98,135,151,119,90,152,182,146,322
Jun,13,100,149,175,141,93,130,154,131,305
Jun,14,106,118,122,106,95,108,119,111,190
Jun,15,94,104,110,99,91,108,119,107,157
Jun,16,104,121,131,116,99,122,137,124,200
Jun,17,112,131,140,122,101,116,129,122,209
Jun,18,107,110,112,102,99,125,141,128,204
Jun,19,103,137,154,128,99,150,177,146,296
Jun,20,107,136,151,128,101,155,185,156,296
Jun,21,120,147,161,137,113,163,191,163,300
Jun,22,100,122,134,116,99,134,152,129,220
Jun,23,114,123,126,109,102,148,173,149,268
Jun,24,120,133,138,119,109,161,188,162,292
Jun,25,105,136,150,121,94,148,178,149,319
Jun,26,95,95,97,86,86,128,152,132,219
Jun,27,110,147,165,136,102,156,186,155,320
Jun,28,116,150,166,139,111,144,162,140,262
Jun,29,106,140,157,130,100,144,167,142,268
Jun,30,117,145,158,133,102,120,138,129,258
Jul,1,93,132,154,129,85,92,106,101,221
Jul,2,112,140,152,124,101,158,188,157,311
Jul,3,108,143,161,131,101,164,197,162,323
Jul,4,104,140,158,128,95,153,184,152,316
Jul,5,108,151,174,143,101,146,172,146,295
Jul,6,108,142,158,128,96,155,188,157,322
Jul,7,94,145,173,136,82,137,172,143,341
Jul,8,111,144,159,129,90,131,162,145,311
Jul,9,102,140,157,124,87,150,186,154,332
Jul,10,116,151,167,135,98,131,157,141,286
Jul,11,112,150,167,136,93,114,135,126,267
Jul,12,113,126,135,116,103,164,198,166,290
Jul,13,119,145,156,128,97,144,176,157,296
Jul,14,123,148,158,129,97,128,155,145,287
Jul,15,114,120,122,107,100,144,170,149,230
Jul,16,119,137,146,126,108,157,184,159,242
Jul,17,104,137,156,129,90,143,177,153,269
Jul,18,128,153,159,131,101,137,163,151,280
Jul,19,102,99,99,89,90,152,187,159,236
Jul,20,110,150,167,132,90,153,190,161,311
Jul,21,115,148,162,131,99,163,199,168,290
Jul,22,105,147,161,128,84,97,111,107,217
Jul,23,99,135,151,122,87,149,182,151,249
Jul,24,108,141,150,112,77,147,188,160,328
Jul,25,98,146,163,126,75,84,97,95,204
Jul,26,122,126,121,101,92,121,143,137,230
Jul,27,99,100,98,88,83,99,113,109,148
Jul,28,81,80,80,73,70,87,100,93,120
Jul,29,80,82,81,72,67,79,89,86,116
Jul,30,109,106,102,87,84,130,160,144,215
Jul,31,124,152,160,128,91,135,167,154,264
Aug,1,122,154,161,121,78,128,168,157,304
Aug,2,124,146,148,111,78,139,182,166,308
Aug,3,128,151,152,116,81,123,160,153,287
Aug,4,119,128,126,97,75,131,174,161,278
Aug,5,108,123,121,94,80,113,134,122,198
Aug,6,123,150,152,113,77,126,164,153,284
Aug,7,105,138,144,108,66,81,103,106,210
Aug,8,125,142,139,106,79,97,120,124,229
Aug,9,140,149,147,118,95,127,159,157,247
Aug,10,120,143,143,112,83,118,143,137,221
Aug,11,113,101,96,82,76,117,154,149,209
Aug,12,124,120,114,91,80,137,181,170,241
Aug,13,131,153,156,118,79,139,187,175,276
Aug,14,129,145,142,108,82,135,172,161,242
Aug,15,150,157,150,115,88,125,165,168,272
Aug,16,132,151,149,109,75,125,169,163,262
Aug,17,147,147,138,104,82,129,175,175,274
Aug,18,135,152,147,100,63,125,180,174,293
Aug,19,155,164,156,119,90,121,159,165,259
Aug,20,125,105,96,80,71,107,151,156,213
Aug,21,118,98,92,80,75,129,177,169,199
Aug,22,141,154,150,111,78,104,142,148,238
Aug,23,113,101,95,82,76,108,141,140,167
Aug,24,134,116,100,82,77,117,158,162,214
Aug,25,157,156,140,99,73,119,171,179,279
Aug,26,150,170,159,106,65,114,164,169,275
Aug,27,151,170,157,101,59,105,157,165,280
Aug,28,132,150,138,95,65,110,148,148,223
Aug,29,148,158,147,102,72,120,170,171,245
Aug,30,113,117,112,86,69,100,132,131,168
Aug,31,92,88,80,68,61,74,91,96,119
Sep,1,116,114,100,76,65,79,101,113,163
Sep,2,57,56,51,43,38,46,55,59,72
Sep,3,91,74,63,55,52,76,105,111,128
Sep,4,125,138,133,92,61,100,142,142,188
Sep,5,125,109,97,78,70,110,153,156,177
Sep,6,166,172,151,100,69,107,155,171,248
Sep,7,162,166,144,90,58,103,159,173,250
Sep,8,145,159,142,83,47,104,163,167,230
Sep,9,147,157,138,87,56,90,133,147,215
Sep,10,117,111,100,79,67,93,124,132,152
Sep,11,170,170,144,85,50,95,160,181,256
Sep,12,152,144,123,85,68,97,141,156,205
Sep,13,164,139,114,77,61,98,159,180,229
Sep,14,183,165,131,75,50,95,164,193,264
Sep,15,183,168,133,74,46,89,158,189,263
Sep,16,78,65,55,47,44,55,75,85,93
Sep,17,121,91,68,52,48,85,133,150,163
Sep,18,177,161,127,79,60,95,152,178,232
Sep,19,175,151,111,62,48,87,148,178,234
Sep,20,167,167,131,77,55,88,132,156,211
Sep,21,107,124,108,68,49,56,71,83,124
Sep,22,180,154,118,78,65,94,149,181,222
Sep,23,198,172,128,64,38,85,164,203,255
Sep,24,185,167,123,67,47,79,138,175,228
Sep,25,178,172,133,67,42,87,150,176,216
Sep,26,128,104,83,61,47,74,120,144,151
Sep,27,64,57,48,39,37,43,57,65,71
Sep,28,63,61,53,41,35,42,54,61,70
Sep,29,79,67,56,46,43,51,70,82,87
Sep,30,52,45,37,31,29,34,44,52,56
Oct,1,95,77,63,54,51,66,92,105,103
Oct,2,185,161,121,73,58,83,138,175,204
Oct,3,189,155,106,51,39,69,135,178,211
Oct,4,183,153,100,53,40,49,96,151,202
Oct,5,185,154,113,64,53,86,150,184,197
Oct,6,216,172,114,46,26,65,152,208,230
Oct,7,214,171,112,43,24,60,146,202,224
Oct,8,204,160,104,42,26,60,140,194,211
Oct,9,194,149,95,44,34,62,133,184,200
Oct,10,198,155,100,45,32,59,131,185,201
Oct,11,203,152,97,45,34,70,150,203,203
Oct,12,232,181,117,46,29,66,158,219,224
Oct,13,227,179,113,41,24,56,142,205,217
Oct,14,222,170,106,41,27,58,142,204,211
Oct,15,193,152,101,52,41,59,121,174,184
Oct,16,173,158,110,59,48,58,93,135,163
Oct,17,132,118,85,58,54,61,83,113,129
Oct,18,88,75,59,48,45,51,69,86,88
Oct,19,96,68,53,44,42,51,84,105,96
Oct,20,184,178,126,60,45,56,92,134,162
Oct,21,196,139,84,45,40,62,132,190,178
Oct,22,200,123,60,27,25,49,131,201,180
Oct,23,63,52,41,34,32,37,50,62,62
Oct,24,63,59,46,34,32,34,43,55,61
Oct,25,210,121,60,33,32,58,149,223,184
Oct,26,217,177,105,41,32,43,101,169,180
Oct,27,172,114,58,37,35,39,89,156,155
Oct,28,37,29,22,18,17,19,28,36,35
Oct,29,54,47,35,27,26,28,36,48,51
Oct,30,32,23,19,17,16,19,28,35,31
Oct,31,220,129,58,25,23,47,140,222,178
Nov,1,175,118,61,39,38,47,99,164,151
Nov,2,141,115,76,46,43,49,82,120,122
Nov,3,98,92,68,43,39,43,56,77,86
Nov,4,71,54,41,35,34,40,60,76,67
Nov,5,154,96,57,42,40,51,107,159,130
Nov,6,232,164,87,34,28,44,122,203,174
Nov,7,234,167,88,35,30,44,119,202,175
Nov,8,243,173,90,33,27,42,123,209,177
Nov,9,113,87,54,39,38,44,70,104,97
Nov,10,95,72,52,42,41,45,70,94,86
Nov,11,258,182,94,29,22,40,129,221,177
Nov,12,232,163,84,33,29,41,114,198,166
Nov,13,117,105,69,43,40,44,61,92,97
Nov,14,249,174,88,30,24,39,122,213,169
Nov,15,245,177,89,31,26,36,109,200,168
Nov,16,80,64,46,37,36,40,56,75,71
Nov,17,178,108,64,37,34,47,122,180,128
Nov,18,245,171,85,30,26,38,116,208,163
Nov,19,101,63,44,36,35,42,82,110,83
Nov,20,96,78,53,39,37,40,58,85,82
Nov,21,236,181,89,30,25,29,86,177,156
Nov,22,216,147,78,32,28,39,114,190,142
Nov,23,147,127,81,41,37,44,75,114,105
Nov,24,189,138,78,35,33,42,98,161,128
Nov,25,242,168,83,28,24,37,116,205,151
Nov,26,213,173,88,31,26,30,73,152,137
Nov,27,76,59,39,32,32,34,48,70,66
Nov,28,157,105,53,37,36,41,86,146,116
Nov,29,97,82,52,37,35,37,51,81,79
Nov,30,50,41,29,24,23,24,33,46,44
Dec,1,223,154,72,28,26,33,99,186,141
Dec,2,252,171,79,25,21,32,114,213,150
Dec,3,215,142,70,32,29,39,111,192,135
Dec,4,262,177,79,22,18,30,117,221,151
Dec,5,213,164,78,29,27,31,78,161,134
Dec,6,41,32,23,19,18,20,28,38,36
Dec,7,238,163,74,25,23,31,102,197,141
Dec,8,241,165,75,25,23,31,104,200,142
Dec,9,259,177,80,22,19,29,111,214,146
Dec,10,249,169,76,23,20,29,106,206,142
Dec,11,179,123,61,30,29,35,86,154,116
Dec,12,150,106,44,27,27,28,59,126,104
Dec,13,70,61,41,30,29,30,40,58,59
Dec,14,124,99,57,35,33,36,58,100,90
Dec,15,142,126,74,35,34,36,54,98,97
Dec,16,111,84,46,34,34,36,56,97,86
Dec,17,264,180,80,21,18,28,112,217,145
Dec,18,227,161,79,28,25,35,102,188,131
Dec,19,263,180,80,20,17,27,111,216,143
Dec,20,144,97,50,34,34,37,76,131,103
Dec,21,79,65,46,36,36,37,50,71,69
Dec,22,80,65,46,37,36,38,51,72,70
Dec,23,82,65,44,35,35,36,51,74,70
Dec,24,57,44,32,25,25,28,41,55,49
Dec,25,64,50,35,28,28,29,42,60,55
Dec,26,212,136,59,27,26,33,98,186,131
Dec,27,209,162,80,29,27,31,77,156,127
Dec,28,108,92,61,39,38,41,59,88,83
Dec,29,90,72,43,32,31,33,47,78,73
Dec,30,85,69,49,39,39,41,55,77,74
Dec,31,76,62,44,35,35,37,50,69,67
